29847 905309
447039 679892
766885 535567
69066 998585
539142 30206
146577 604170
755564 189513
406884 845648
225867 128946
665184 612113
120056 563995
572765 11840
707138 55000
447044 281993
604630 337729
526496 43377
233920 616662
79611 719787
784917 444294
855299 888315
586447 109965
239397 625854
454752 279864
690919 318871
829729 138730
147857 185787
103888 565381
608276 41860
719612 754568
535978 710125
410371 913455
707191 941022
33777 219161
858850 102973
256739 288975
396803 824104
869538 908809
172752 83156
125382 934864
994583 121350
367827 812337
324149 143031
317720 771376
282753 815413
572343 965535
525213 204423
550030 729866
11397 891363
787913 196773
361176 285419
20104 113464
45825 231750
739434 203501
825303 320512
688456 859863
734006 750167
919387 802802
465289 40192
277866 672836
357167 162796
235095 409303
784501 392699
954720 325828
365031 427048
422091 669906
351260 507430
836593 630221
49586 999281
966610 882871
3663 76768
842129 807850
486450 971690
174908 457605
747998 43404
908270 438503
711481 867504
559273 389396
377150 332165
417015 842716
789414 980124
250859 292924
212655 716327
595210 413300
604610 568616
831026 581610
500924 719828
934644 335232
515988 724581
926526 913682
381192 159184
438322 278559
668076 744664
44778 331016
101503 462007
267752 532777
485142 767498
228626 414813
967603 821281
988539 279820
997102 886964
687903 239338
621120 338670
420502 908916
228334 980437
682840 405225
793328 606173
464637 34237
732130 826864
94029 709506
739964 303903
883084 106005
306197 615073
561777 115144
119773 239835
966493 509867
393509 214283
119380 793730
694812 981392
812689 482175
876041 735662
831129 215395
792421 868946
139985 15610
404536 753848
91912 173570
112326 997556
970589 524747
352530 332922
920953 481856
804003 248795
344812 482098
694431 409876
144764 174974
802225 262421
254583 581396
106966 718179
545180 311812
902215 913723
839935 459497
985802 533964
859702 637402
290250 135899
945388 514954
651479 664872
758133 729070
954584 711010
287144 272602
465429 626960
322250 545073
654780 359322
920700 30609
498595 598181
807810 803449
588447 453708
554405 211001
137827 35268
687262 158169
158853 867832
207124 524981
973090 69262
615022 720859
869760 159174
708268 737057
836141 124584
118390 547127
642347 962497
22178 756016
938934 324102
590522 752841
768108 342698
304273 649671
754435 503147
290122 689057
37752 868903
399666 369848
79640 780083
27867 312591
553285 193397
757637 585633
553959 280187
341629 902515
621173 366798
626481 978826
94847 751263
370814 336913
410193 858197
15979 714395
950969 496333
136380 339975
953488 34578
190298 5439
569320 631584
256060 692767
525188 883683
242879 411670
237422 372556
36458 266037
981554 274208
18876 136000
307196 954320
971044 9038
575751 294887
452926 76335
