561890 300606 470
124507 951366 525
528759 611202 452
733 98465 351
101529 573845 470
903151 121694 525
834127 642575 504
390526 893845 525
377369 15371 443
889454 920661 476
708500 805003 468
584257 489526 470
962990 741588 525
22377 336918 443
471879 618415 470
38227 890270 525
785500 377007 509
880482 81636 525
812871 204482 509
714438 711844 411
51350 301590 443
40220 451659 449
833513 66297 509
460886 436557 400
322206 445454 449
487770 255446 449
104991 863731 525
354329 125390 443
342202 775579 509
629572 868299 525
972245 147489 525
30098 528830 470
578389 613172 434
371489 926121 525
94323 212609 383
868759 245133 525
81730 488525 449
640441 868779 525
727622 32846 509
308885 408043 441
532763 340418 470
797079 2668 509
759167 49010 509
595843 256524 470
79642 210964 383
17509 760986 509
714484 914670 525
504819 272985 449
517362 85489 470
40115 454645 449
468754 999764 525
821372 844768 525
698310 563087 509
559290 403887 470
706786 898763 525
632446 979234 525
671477 88888 509
851759 186587 525
419469 664439 509
159622 74936 383
88288 726287 509
691812 628608 442
156029 47385 375
534337 200211 470
940606 337616 525
536505 665746 509
678310 705257 504
112874 643711 509
940795 122741 525
239587 413807 449
153342 470974 449
617748 762144 509
300341 542169 470
63860 551686 470
51657 795835 509
89773 162499 383
871924 559765 525
474292 961248 525
164418 328215 443
446694 44789 449
294619 952690 525
875010 945336 507
738696 492722 509
210134 374811 443
172337 31265 383
980409 960646 458
948579 577969 525
136219 477695 449
321931 806891 509
589090 164710 470
195361 378171 443
361315 501890 449
232809 678520 509
696961 543628 509
857464 435541 525
569531 718785 509
48836 246763 443
751926 814889 468
849606 166147 525
479739 363466 449
85308 730200 509
362609 349198 410
285393 474911 449
763904 971434 525
152410 100040 375
118362 28168 354
851288 323719 525
47863 444853 449
660589 929599 525
198959 827410 509
620358 744006 509
159619 584958 470
725389 329709 509
371057 352253 410
449886 142764 449
521555 599050 452
731307 26779 509
318564 835160 509
469249 51410 449
245361 758178 509
217726 419433 449
280952 463159 449
943239 63744 525
488857 878703 525
159996 859238 525
489557 971384 525
792779 291514 509
168817 349350 443
871984 927512 476
759561 870950 525
290101 492169 449
543496 507502 470
590504 288447 470
930074 442639 525
938515 718298 525
924904 801236 525
768766 110779 509
641921 266390 509
863975 826675 525
391483 527567 470
373018 298845 441
110328 334073 443
963749 908184 507
673536 169126 509
965963 758434 525
439855 411356 418
693709 181719 509
866959 950360 507
23706 917915 525
988317 282578 525
162479 229523 386
112897 583945 470
10867 162533 383
304183 447279 449
788810 943968 525
259838 367105 441
804395 337913 509
187126 822315 509
836995 172555 509
628390 161237 509
557897 188617 470
340728 369620 441
301865 820876 509
684267 316621 509
594704 235118 470
941533 183737 525
589803 905889 525
156097 402438 443
452673 193958 449
193301 78686 383
939245 693299 525
109718 713467 509
665275 1950 509
470395 629122 509
404233 369121 436
624824 166592 470
862731 819935 525
866884 855378 388
743132 849643 525
362009 348084 410
915732 671240 525
341886 594577 470
330624 520958 470
803974 357542 509
915055 640345 525
373569 939494 525
80327 702804 509
565908 528900 452
939104 337268 525
91465 636376 509
681653 622790 509
713201 807913 468
384999 33955 443
180941 822902 509
995205 417526 525
874570 849793 432
277309 969241 525
358646 242241 441
413628 194965 449
667604 838436 525
967355 537971 525
899203 965199 507
575987 871381 525
558396 974510 525
278456 577452 470
313308 484987 449
146637 491497 449
827335 867094 525
218114 476540 449
387213 583230 470
338951 56706 443
909008 110921 525
84162 163252 383
763416 339651 509
175619 292053 443
592653 146814 470
559539 103944 470
615081 88593 470
223772 684499 509
598493 235431 470
762289 768686 468
471927 674294 509
410304 675732 509
707542 351101 509
478386 96201 449
561395 243231 470
