925231 112545 525
176241 875693 525
80451 529804 470
226079 970094 525
312866 734568 509
451080 270406 449
507990 54531 449
239825 601302 470
670408 812167 504
997756 745351 525
619875 820812 509
705604 63670 509
276508 324591 389
720912 268645 509
227471 253649 443
259618 558380 470
283666 428633 449
419194 770511 509
71757 474189 449
73893 9592 340
745342 136809 509
547865 959934 525
677015 99139 509
22712 760574 509
611534 374671 470
137291 438947 449
842356 372458 525
922542 21994 525
747037 873814 525
724024 920823 525
68431 830214 509
292217 8021 443
894188 224323 525
679980 859845 525
284642 735385 509
357238 648501 509
355616 733017 509
345846 725389 509
113531 976849 525
853614 71447 525
379345 108757 443
90462 279505 443
149589 98277 375
185898 936547 525
183148 580262 470
877147 877288 357
840330 502183 525
863738 619004 525
57908 279374 443
961917 483228 525
683568 655224 442
746099 639573 504
544769 892704 525
518409 987875 525
868142 706543 525
304093 135517 443
191620 798503 509
199826 622681 470
873475 694694 525
869121 699549 525
52697 134038 354
779691 893671 525
47499 219418 386
316730 23013 443
461738 680712 509
760037 991760 525
416706 445190 418
478866 38663 449
187239 115696 383
597726 471749 470
18039 126225 354
570620 918065 525
164475 450839 449
475522 187978 449
579620 498646 470
376213 976028 525
139039 558666 470
259893 25493 443
621824 998486 525
653407 153620 509
113275 532300 470
332020 376966 441
784227 733369 468
842051 794612 525
913301 73139 525
430939 305606 449
431735 301588 449
27844 695275 509
205081 30771 383
548563 937944 525
508579 197009 449
123591 849062 525
584776 684250 509
610688 745744 509
858480 892093 445
864357 261091 525
414456 888080 525
469360 927786 525
61693 61657 180
285618 874893 525
482865 378414 449
99276 258977 443
966901 435256 525
468037 44092 449
624121 753732 509
188750 874356 525
993923 269297 525
554649 966345 525
597608 479043 470
548807 94175 470
137967 199338 383
937578 13338 525
973800 617180 525
254313 835122 509
642643 659422 429
336363 482549 449
699109 711610 504
510102 576038 470
16427 419717 449
955261 283572 525
819770 2228 509
190838 810438 509
480607 749441 509
550288 33381 470
988487 549352 525
585375 799066 509
24342 406508 443
87889 50083 351
997210 476703 525
8651 205555 383
923509 661096 525
416470 671986 509
596698 856838 525
617663 768550 509
774368 892709 525
102273 76180 351
816997 823610 450
242350 910698 525
384069 136552 443
75714 895507 525
229779 305715 443
787151 39460 509
629430 659019 429
812820 14658 509
500085 671540 509
780177 911652 525
780428 582685 509
629290 722484 504
658158 461279 509
33311 102575 351
301771 985009 525
418270 734435 509
157948 356685 443
891901 720792 525
80650 808353 509
465641 790362 509
438966 853195 525
689364 391891 509
608290 423575 470
876742 493284 525
871938 584992 525
45780 414911 449
393660 473949 449
228994 505799 449
515700 423018 470
809485 928470 525
899060 52322 525
967490 930148 507
960334 440941 525
140178 460559 449
372639 304699 441
127609 352793 443
475877 423730 444
779132 72271 509
146226 11286 375
568787 457210 470
660447 869086 525
946912 766368 525
251267 776353 509
205817 691503 509
136420 258524 443
447771 767027 509
688157 355522 509
755429 968274 525
622809 584339 447
253701 703816 509
274173 556982 470
437803 654032 509
507606 49610 449
805642 363367 509
563687 152457 470
629602 716210 504
481160 187454 449
257708 76732 443
994681 881177 507
513195 860873 525
864144 66882 525
849713 602470 525
872388 259548 525
940890 678617 525
278273 740567 509
723098 414252 509
851299 557853 525
881079 562456 525
772699 658818 504
95602 958136 525
47285 335465 443
244311 24772 443
918178 840368 476
477707 991366 525
201773 146985 383
883170 898274 445
99030 262693 443
918696 639335 525
497031 994575 525
440531 936584 525
98334 438852 449
219749 353467 443
652702 80874 509
792335 383491 509
68072 330587 443
34528 722706 509
627101 297098 509
392248 92975 443
986124 513177 525
