767200 475657 509
267862 722078 509
394521 391658 361
458343 530446 470
666240 890364 525
496468 383407 449
308127 777714 509
138522 429845 449
238813 609311 470
435740 885402 525
551855 914445 525
827575 36853 509
684944 263743 509
113971 93048 354
236812 564079 470
118253 420436 449
248798 875619 525
60426 259587 443
171942 203551 365
818407 50568 509
389362 217430 443
911090 518262 525
150566 974011 525
885951 360408 525
448623 719987 509
644480 522563 509
95557 735055 509
12543 534190 470
726565 310688 509
791821 486636 509
84663 325314 443
362375 932500 525
421309 802536 509
635339 172394 509
985028 168288 525
222244 485770 449
323868 664195 509
709689 337659 509
719502 803979 468
348599 538182 470
286146 265465 407
294651 835371 509
888220 315222 525
908295 931015 476
958943 842277 507
751647 938098 525
427407 970753 525
632599 445656 509
844626 898434 445
283919 496464 449
947962 928736 507
140751 897931 525
474159 352577 449
608981 819943 509
22430 202751 383
92165 204598 383
458410 633788 509
734931 289669 509
603615 686162 509
159541 948849 525
74610 286785 443
665765 572437 509
366626 893127 525
701681 569918 509
310272 839478 525
795211 762898 468
729992 245641 509
263820 545517 470
645749 369236 509
965136 672437 525
989830 47355 525
539859 181085 470
386426 779050 509
51936 872824 525
585514 389462 470
283203 622729 470
671348 359791 509
940337 21141 525
522450 486854 470
342265 481472 449
480417 33728 449
217436 341982 443
988393 104672 525
23532 470339 449
999351 859719 507
177209 705619 509
535481 434847 470
805580 54163 509
31304 550616 470
301049 549534 470
870664 862110 388
753733 566175 509
520823 340161 470
416490 802057 509
847323 600136 525
46475 94116 351
201480 110383 383
254678 303636 407
643783 635379 416
672667 678572 385
490245 970934 525
252168 891529 525
981727 53474 525
284743 364908 441
835170 916408 525
169920 818747 509
902753 576057 525
798792 318561 509
443215 246177 449
172675 359035 443
312145 382699 441
103925 183300 383
569242 726257 509
847027 21601 525
781747 671980 504
345815 611426 470
79254 743217 509
73265 107174 354
927051 308639 525
913172 786697 525
867405 230564 525
278215 443808 449
331040 888053 525
253406 290513 407
787883 4211 509
295230 1026 443
461509 203018 449
153371 423432 449
593609 270769 470
988391 535021 525
648631 873043 525
978307 899916 507
130838 8804 354
784183 861522 525
354054 5567 443
770102 438791 509
16394 403043 443
673557 856330 525
898982 164945 525
960857 855426 507
485817 41178 449
30804 707566 509
406530 983815 525
233179 698058 509
137193 516289 470
571446 691875 509
924526 332183 525
271862 204938 443
551 378384 443
603561 671878 509
822157 389161 509
641952 866291 525
755998 918016 525
466098 201300 449
727725 866832 525
922395 975334 507
822618 568335 509
74979 825680 509
786997 517549 509
448567 918354 525
207022 828711 509
335453 317281 384
939818 710092 525
704585 122073 509
580611 295361 470
476967 384531 449
482194 351889 449
37532 305035 443
607250 375188 470
343794 768171 509
549141 208205 470
244882 875643 525
280807 827461 509
628007 449575 509
836859 892232 525
105466 536192 470
421371 17082 449
807611 140195 509
622634 382538 470
527779 323355 470
343101 256515 407
286108 481186 449
200301 817567 509
559195 23993 470
780347 586881 509
384188 229417 443
653916 393190 509
261941 71247 443
740586 948127 525
32916 341596 443
21607 780838 509
324450 231505 407
775826 6814 509
704928 68563 509
206743 764861 509
66198 876725 525
967128 846078 507
716814 251998 509
455418 627463 509
260058 240629 363
28249 286112 443
201881 904717 525
498814 76928 449
863533 900486 445
724760 797600 468
521836 632846 509
623423 790056 509
397737 313319 441
258330 539025 470
201275 893628 525
21160 641833 509
529518 144317 470
488411 83885 449
4500 582827 470
562739 117909 470
189566 479187 449
920225 44039 525
394991 477170 449
757731 122828 509
195684 602238 470
810413 591459 509
444779 156153 449
843120 647504 525
830579 545923 509
158464 986893 525
755732 527695 509
466430 807620 509
99588 895079 525
953648 729963 525
406959 576579 470
193639 849658 525
8274 66739 340
643072 414813 509
557303 541115 452
298955 334359 384
197948 181289 360
715469 389673 509
210852 967743 525
261718 647550 509
747202 222224 509
916222 212762 525
720278 154604 509
545951 238999 470
789467 39445 509
311131 371084 441
443064 323733 449
699527 92507 509
433980 797922 509
984190 14299 525
329195 325641 353
65516 427184 449
